<?xml version="1.0" encoding="UTF-8" standalone="no"?>
<svg
   xmlns:osb="http://www.openswatchbook.org/uri/2009/osb"
   xmlns:dc="http://purl.org/dc/elements/1.1/"
   xmlns:cc="http://creativecommons.org/ns#"
   xmlns:rdf="http://www.w3.org/1999/02/22-rdf-syntax-ns#"
   xmlns:svg="http://www.w3.org/2000/svg"
   xmlns="http://www.w3.org/2000/svg"
   xmlns:xlink="http://www.w3.org/1999/xlink"
   xmlns:sodipodi="http://sodipodi.sourceforge.net/DTD/sodipodi-0.dtd"
   xmlns:inkscape="http://www.inkscape.org/namespaces/inkscape"
   version="1.1"
   x="0px"
   y="0px"
   width="439.45932"
   height="145.85098"
   xml:space="preserve"
   id="svg863"
   sodipodi:docname="optimus-avocats.svg"
   inkscape:version="0.92.4 (5da689c313, 2019-01-14)"
   inkscape:export-filename="C:\Users\Metallian\Desktop\Optimus Logo\optimus-avocats.png"
   inkscape:export-xdpi="100.16145"
   inkscape:export-ydpi="100.16145"><metadata
   id="metadata869"><rdf:RDF><cc:Work
       rdf:about=""><dc:format>image/svg+xml</dc:format><dc:type
         rdf:resource="http://purl.org/dc/dcmitype/StillImage" /><dc:title /></cc:Work></rdf:RDF></metadata><defs
   id="defs867"><linearGradient
     id="linearGradient1209"><stop
       id="stop1201"
       offset="0.0000000"
       style="stop-color:#ebf1ff;stop-opacity:1" /><stop
       id="stop1203"
       offset="0.03520972"
       style="stop-color:#ebf1ff;stop-opacity:1" /><stop
       id="stop1205"
       offset="0.44162294"
       style="stop-color:#5e79b0;stop-opacity:1" /><stop
       id="stop1207"
       offset="1.0000000"
       style="stop-color:#5e79b0;stop-opacity:1" /></linearGradient><linearGradient
     id="linearGradient1157"><stop
       style="stop-color:#d3e9ff;stop-opacity:1.0000000;"
       offset="0.0000000"
       id="stop1149" /><stop
       style="stop-color:#ebf1ff;stop-opacity:0"
       offset="0.0373642"
       id="stop1151" /><stop
       style="stop-color:#4074ae;stop-opacity:1.0000000;"
       offset="0.27506858"
       id="stop1153" /><stop
       style="stop-color:#5e79b0;stop-opacity:1"
       offset="1.0000000"
       id="stop1155" /></linearGradient><linearGradient
     id="linearGradient1112"><stop
       style="stop-color:#ebf1ff;stop-opacity:1"
       offset="0.0000000"
       id="stop1104" /><stop
       style="stop-color:#cbe1f4;stop-opacity:1"
       offset="0.00000001"
       id="stop1106" /><stop
       style="stop-color:#5e79b0;stop-opacity:1"
       offset="0.4064132"
       id="stop1108" /><stop
       style="stop-color:#5e79b0;stop-opacity:1"
       offset="1.0000000"
       id="stop1110" /></linearGradient><linearGradient
     id="linearGradient3962"><stop
       id="stop1079"
       offset="0"
       style="stop-color:#d3e9ff;stop-opacity:1.0000000;" /><stop
       id="stop1081"
       offset="0.22226167"
       style="stop-color:#d3e9ff;stop-opacity:1.0000000;" /><stop
       id="stop1083"
       offset="0.50489503"
       style="stop-color:#4074ae;stop-opacity:1.0000000;" /><stop
       id="stop1085"
       offset="1"
       style="stop-color:#36486c;stop-opacity:1.0000000;" /></linearGradient><linearGradient
     inkscape:collect="always"
     id="linearGradient1054-1"><stop
       style="stop-color:#3a3a6c;stop-opacity:1;"
       offset="0"
       id="stop1050" /><stop
       style="stop-color:#3a3a6c;stop-opacity:0;"
       offset="1"
       id="stop1052" /></linearGradient><linearGradient
     id="linearGradient3962-9"><stop
       style="stop-color:#d3e9ff;stop-opacity:1.0000000;"
       offset="0"
       id="stop1037" /><stop
       style="stop-color:#d3e9ff;stop-opacity:1.0000000;"
       offset="0.22226167"
       id="stop1039" /><stop
       style="stop-color:#4074ae;stop-opacity:1.0000000;"
       offset="0.50489503"
       id="stop1041" /><stop
       style="stop-color:#36486c;stop-opacity:1.0000000;"
       offset="1"
       id="stop1043" /></linearGradient><linearGradient
     id="linearGradient3963"
     osb:paint="solid"><stop
       style="stop-color:#5e79b0;stop-opacity:1;"
       offset="0"
       id="stop3961" /></linearGradient><linearGradient
     id="linearGradient2469"
     osb:paint="solid"><stop
       style="stop-color:#3a3a6c;stop-opacity:1;"
       offset="0"
       id="stop2467" /></linearGradient><radialGradient
     cx="18.247644"
     cy="15.716079"
     fx="18.247644"
     fy="15.716079"
     gradientTransform="matrix(3.4899409,0,0,3.4900176,-9.6232645,-8.9166454)"
     gradientUnits="userSpaceOnUse"
     id="radialGradient3968"
     inkscape:collect="always"
     r="29.993349"
     xlink:href="#linearGradient3962-8" /><linearGradient
     id="linearGradient3962-8"><stop
       id="stop3964"
       offset="0.0000000"
       style="stop-color:#d3e9ff;stop-opacity:1.0000000;" /><stop
       id="stop4134"
       offset="0.15517241"
       style="stop-color:#d3e9ff;stop-opacity:1.0000000;" /><stop
       id="stop4346"
       offset="0.75000000"
       style="stop-color:#4074ae;stop-opacity:1.0000000;" /><stop
       id="stop3966"
       offset="1.0000000"
       style="stop-color:#36486c;stop-opacity:1.0000000;" /></linearGradient><radialGradient
     cx="15.601279"
     cy="12.142302"
     fx="15.601279"
     fy="12.142302"
     gradientTransform="matrix(3.4899409,0,0,3.4900176,-9.6232645,-8.9166454)"
     gradientUnits="userSpaceOnUse"
     id="radialGradient4132"
     inkscape:collect="always"
     r="43.526714"
     xlink:href="#linearGradient4126" /><linearGradient
     id="linearGradient4126"><stop
       id="stop4128"
       offset="0.0000000"
       style="stop-color:#ffffff;stop-opacity:1.0000000;" /><stop
       id="stop4130"
       offset="1.0000000"
       style="stop-color:#ffffff;stop-opacity:0.16494845;" /></linearGradient><linearGradient
     gradientTransform="matrix(4.4899174,-6.5319733e-8,5.0772537e-8,3.489979,179.93536,-43.98764)"
     gradientUnits="userSpaceOnUse"
     id="linearGradient6007"
     inkscape:collect="always"
     x1="-25.176178"
     x2="-22.252472"
     xlink:href="#linearGradient6001"
     y1="30.057165"
     y2="21.041553" /><linearGradient
     id="linearGradient6001"
     inkscape:collect="always"><stop
       id="stop6003"
       offset="0"
       style="stop-color:#ffffff;stop-opacity:1;" /><stop
       id="stop6005"
       offset="1"
       style="stop-color:#ffffff;stop-opacity:0;" /></linearGradient><linearGradient
     gradientTransform="matrix(4.4899172,0,0,3.489979,92.023183,52.631055)"
     gradientUnits="userSpaceOnUse"
     id="linearGradient6011"
     inkscape:collect="always"
     x1="-25.176178"
     x2="-22.113543"
     xlink:href="#linearGradient6001"
     y1="30.057165"
     y2="22.661524" /><radialGradient
     cx="12.071323"
     cy="12.493138"
     fx="12.071323"
     fy="12.493138"
     gradientUnits="userSpaceOnUse"
     id="radialGradient5987"
     inkscape:collect="always"
     r="6.7175145"
     xlink:href="#linearGradient6001" /><linearGradient
     gradientTransform="matrix(4.4899167,1.3469781e-8,-1.0469959e-8,3.4899783,4.9359581,-133.639)"
     gradientUnits="userSpaceOnUse"
     id="linearGradient6015"
     inkscape:collect="always"
     x1="-22.822565"
     x2="-22.113543"
     xlink:href="#linearGradient6001"
     y1="28.337734"
     y2="22.661524" /><linearGradient
     gradientTransform="matrix(4.3873142,0,0,3.4102139,85.955514,35.204969)"
     gradientUnits="userSpaceOnUse"
     id="linearGradient6019"
     inkscape:collect="always"
     x1="-21.658581"
     x2="-21.962101"
     xlink:href="#linearGradient3962-8"
     y1="15.649428"
     y2="21.336346" /><radialGradient
     cx="12.071323"
     cy="12.493138"
     fx="12.071323"
     fy="12.493138"
     gradientUnits="userSpaceOnUse"
     id="radialGradient5983"
     inkscape:collect="always"
     r="6.7175145"
     xlink:href="#linearGradient6001" /><radialGradient
     cx="12.071323"
     cy="12.493138"
     fx="12.071323"
     fy="12.493138"
     gradientUnits="userSpaceOnUse"
     id="radialGradient5985"
     inkscape:collect="always"
     r="6.7175145"
     xlink:href="#linearGradient6001" /><radialGradient
     cx="12.071323"
     cy="12.493138"
     fx="12.071323"
     fy="12.493138"
     gradientUnits="userSpaceOnUse"
     id="radialGradient5989"
     inkscape:collect="always"
     r="6.7175145"
     xlink:href="#linearGradient6001" /><linearGradient
     inkscape:collect="always"
     xlink:href="#linearGradient2469"
     id="linearGradient2471"
     x1="-0.5"
     y1="-12.235352"
     x2="135.03906"
     y2="-12.235352"
     gradientUnits="userSpaceOnUse" /><radialGradient
     inkscape:collect="always"
     xlink:href="#linearGradient1054-1"
     id="radialGradient1058"
     cx="113.67328"
     cy="-18.311523"
     fx="113.67328"
     fy="-18.311523"
     r="121.66017"
     gradientTransform="matrix(1,0,0,0.19202927,0,-14.795175)"
     gradientUnits="userSpaceOnUse" /><radialGradient
     inkscape:collect="always"
     xlink:href="#linearGradient1112"
     id="radialGradient1145"
     cx="150.7977"
     cy="-33.894257"
     fx="150.7977"
     fy="-33.894257"
     r="121.29657"
     gradientTransform="matrix(-5.73365e-4,-0.45561682,1.2008999,-0.00176436,144.64287,33.65985)"
     gradientUnits="userSpaceOnUse" /><radialGradient
     inkscape:collect="always"
     xlink:href="#linearGradient1209"
     id="radialGradient1199"
     cx="-4.2934675"
     cy="-68.869751"
     fx="-4.2934675"
     fy="-68.869751"
     r="67.769531"
     gradientTransform="matrix(0.99987038,-0.01790135,0.01341205,0.92607573,0.92312801,32.995373)"
     gradientUnits="userSpaceOnUse" /></defs><sodipodi:namedview
   pagecolor="#ffffff"
   bordercolor="#666666"
   borderopacity="1"
   objecttolerance="10"
   gridtolerance="10"
   guidetolerance="10"
   inkscape:pageopacity="0"
   inkscape:pageshadow="2"
   inkscape:window-width="1920"
   inkscape:window-height="1017"
   id="namedview865"
   showgrid="false"
   inkscape:zoom="1.9790356"
   inkscape:cx="307.45942"
   inkscape:cy="111.78653"
   inkscape:window-x="-8"
   inkscape:window-y="-8"
   inkscape:window-maximized="1"
   inkscape:current-layer="svg863"
   fit-margin-top="0"
   fit-margin-left="0"
   fit-margin-right="0"
   fit-margin-bottom="0" />
<g
   transform="matrix(1.1118514,0,0,1,282.11629,115.79047)"
   id="g857"
   style="fill:#5e79b0;fill-opacity:1;stroke:#39396c;stroke-opacity:1"><g
   aria-label="Avocats"
   style="font-size:34px;font-family:Cornerstone;letter-spacing:0;dominant-baseline:auto;fill:#5e79b0;fill-opacity:1;stroke:#39396c;stroke-opacity:1"
   id="text855"><path
     d="m 14.675781,0 q -1.626953,0 -4.8808591,0 0,-3.2539063 0,-9.7949219 -1.6269531,0 -4.9140625,0 0,3.2539063 0,9.7949219 Q 3.2539063,0 0,0 q 0,-2.7558594 0,-8.3007813 0,-2.2910157 0,-5.7109377 0,-3.453125 0,-8.035156 0,-0.996094 0.73046875,-1.726562 0.69726565,-0.697266 1.72656255,-0.697266 3.2539062,0 9.7949217,0 0.996094,0 1.726563,0.697266 0.697265,0.730468 0.697265,1.726562 0,7.371094 0,22.046875 z M 9.7949219,-14.675781 q 0,-0.298828 0,-0.863282 0,-1.361328 0,-4.050781 -1.6269531,0 -4.9140625,0 0,1.626953 0,4.914063 1.6601562,0 4.9140625,0 z"
     style="font-size:34px;font-family:Cornerstone;letter-spacing:0;dominant-baseline:auto;fill:#5e79b0;fill-opacity:1;stroke:#39396c;stroke-opacity:1"
     id="path2488"
     inkscape:connector-curvature="0" /><path
     d="m 18.925781,-24.470703 q 1.361328,0 5.478516,0 0.929687,4.416016 3.685547,17.7304686 0.929687,-4.4160156 3.685547,-17.7304686 1.361328,0 5.478515,0 Q 35.59375,-18.361328 30.546875,0 29.318359,0 25.632812,0 23.408203,-8.1679688 18.925781,-24.470703 Z"
     style="font-size:34px;font-family:Cornerstone;letter-spacing:0;dominant-baseline:auto;fill:#5e79b0;fill-opacity:1;stroke:#39396c;stroke-opacity:1"
     id="path2490"
     inkscape:connector-curvature="0" /><path
     d="m 56.179687,-22.046875 q 0,6.541016 0,19.5898437 0,1.0292969 -0.697265,1.72656255 Q 54.751953,0 53.755859,0 50.46875,0 43.960937,0 42.931641,0 42.234375,-0.73046875 41.503906,-1.4277344 41.503906,-2.4570313 q 0,-2.4570312 0,-7.3710937 0,-2.025391 0,-5.046875 0,-3.087891 0,-7.171875 0,-0.996094 0.730469,-1.726562 0.697266,-0.697266 1.726562,-0.697266 3.253907,0 9.794922,0 0.996094,0 1.726563,0.697266 0.697265,0.730468 0.697265,1.726562 z m -9.794921,17.1660156 q 1.660156,0 4.914062,0 0,-0.3320312 0,-0.9628906 0,-4.582031 0,-13.746094 -1.626953,0 -4.914062,0 0,2.457032 0,7.337891 0,2.4570311 0,7.3710936 z"
     style="font-size:34px;font-family:Cornerstone;letter-spacing:0;dominant-baseline:auto;fill:#5e79b0;fill-opacity:1;stroke:#39396c;stroke-opacity:1"
     id="path2492"
     inkscape:connector-curvature="0" /><path
     d="m 70.888672,-17.132812 q 0,-0.830079 0,-2.457032 -1.626953,0 -4.914063,0 0,4.914063 0,14.7089846 1.660157,0 4.914063,0 0,-0.8300781 0,-2.4570312 1.626953,0 4.880859,0 0,1.6269531 0,4.8808593 0,1.0292969 -0.697265,1.72656255 Q 74.341797,0 73.345703,0 70.058594,0 63.550781,0 62.521484,0 61.824219,-0.73046875 61.09375,-1.4277344 61.09375,-2.4570313 q 0,-2.4570312 0,-7.3710937 0,-2.025391 0,-5.046875 0,-3.087891 0,-7.171875 0,-0.996094 0.730469,-1.726562 0.697265,-0.697266 1.726562,-0.697266 3.253906,0 9.794922,0 0.996094,0 1.726563,0.697266 0.697265,0.730468 0.697265,1.726562 0,1.660156 0,4.914063 -1.626953,0 -4.880859,0 z"
     style="font-size:34px;font-family:Cornerstone;letter-spacing:0;dominant-baseline:auto;fill:#5e79b0;fill-opacity:1;stroke:#39396c;stroke-opacity:1"
     id="path2494"
     inkscape:connector-curvature="0" /><path
     d="m 95.359375,0 q -1.626953,0 -4.880859,0 0,-3.2539063 0,-9.7949219 -1.626954,0 -4.914063,0 0,3.2539063 0,9.7949219 -1.626953,0 -4.880859,0 0,-2.7558594 0,-8.3007813 0,-2.2910157 0,-5.7109377 0,-3.453125 0,-8.035156 0,-0.996094 0.730468,-1.726562 0.697266,-0.697266 1.726563,-0.697266 3.253906,0 9.794922,0 0.996094,0 1.726562,0.697266 0.697266,0.730468 0.697266,1.726562 0,7.371094 0,22.046875 z m -4.880859,-14.675781 q 0,-0.298828 0,-0.863282 0,-1.361328 0,-4.050781 -1.626954,0 -4.914063,0 0,1.626953 0,4.914063 1.660156,0 4.914063,0 z"
     style="font-size:34px;font-family:Cornerstone;letter-spacing:0;dominant-baseline:auto;fill:#5e79b0;fill-opacity:1;stroke:#39396c;stroke-opacity:1"
     id="path2496"
     inkscape:connector-curvature="0" /><path
     d="m 114.94922,-24.470703 q -3.65234,0 -14.67578,0 0,0.597656 0,1.826172 0,1.228515 0,3.054687 1.22851,0 4.88086,0 0,4.914063 0,19.589844 1.22851,0 4.91406,0 0,-4.8808594 0,-19.589844 1.62695,0 4.88086,0 0,-1.626953 0,-4.880859 z"
     style="font-size:34px;font-family:Cornerstone;letter-spacing:0;dominant-baseline:auto;fill:#5e79b0;fill-opacity:1;stroke:#39396c;stroke-opacity:1"
     id="path2498"
     inkscape:connector-curvature="0" /><path
     d="m 129.6582,-17.132812 q 0,-0.830079 0,-2.457032 -1.62695,0 -4.91406,0 0,1.626953 0,4.914063 2.45703,0 7.37109,0 0.9961,0 1.72657,0.697265 0.69726,0.730469 0.69726,1.726563 0,3.2871092 0,9.7949217 0,1.0292969 -0.69726,1.72656255 Q 133.11133,0 132.11523,0 q -3.28711,0 -9.79492,0 -1.02929,0 -1.72656,-0.73046875 -0.73047,-0.69726565 -0.73047,-1.72656255 0,-1.6269531 0,-4.8808593 1.62695,0 4.88086,0 0,0.796875 0,2.4570312 1.66016,0 4.91406,0 0,-1.6601562 0,-4.9140625 -2.45703,0 -7.33789,0 -1.02929,0 -1.72656,-0.6972661 -0.73047,-0.730468 -0.73047,-1.759765 0,-1.626953 0,-4.083984 0,-2.457032 0,-5.710938 0,-0.996094 0.73047,-1.726562 0.69727,-0.697266 1.72656,-0.697266 3.25391,0 9.79492,0 0.9961,0 1.72657,0.697266 0.69726,0.730468 0.69726,1.726562 0,1.660156 0,4.914063 -1.62695,0 -4.88086,0 z"
     style="font-size:34px;font-family:Cornerstone;letter-spacing:0;dominant-baseline:auto;fill:#5e79b0;fill-opacity:1;stroke:#39396c;stroke-opacity:1"
     id="path2500"
     inkscape:connector-curvature="0" /></g>
</g>
<g
   transform="matrix(1.0805364,0,0,1,178.49798,69.859846)"
   id="g861"
   style="fill:url(#radialGradient1145);fill-opacity:1;stroke:#3a3a6c;stroke-width:1.37471449;stroke-miterlimit:4;stroke-dasharray:none;stroke-opacity:1"><g
   aria-label="OPTIMUS"
   style="font-size:62px;font-family:Cornerstone;letter-spacing:0;dominant-baseline:auto;fill:url(#radialGradient1145);fill-opacity:1;stroke:#3a3a6c;stroke-width:1.37471449;stroke-miterlimit:4;stroke-dasharray:none;stroke-opacity:1"
   id="text859"><path
     d="m 19.825622,-36.203125 q 0,11.927734 0,35.7226563 0,1.8769531 -1.271485,3.1484375 Q 17.222106,4 15.4057,4 9.4115594,4 -2.4556266,4 -4.3325797,4 -5.6040641,2.6679688 -6.9360954,1.3964844 -6.9360954,-0.4804687 q 0,-4.4804688 0,-13.4414063 0,-3.693359 0,-9.203125 0,-5.630859 0,-13.078125 0,-1.816406 1.3320313,-3.148437 1.2714844,-1.271485 3.1484375,-1.271485 5.9335942,0 17.8613266,0 1.816406,0 3.148437,1.271485 1.271485,1.332031 1.271485,3.148437 z M 1.9642952,-4.9003906 q 3.027343,0 8.9609358,0 0,-0.6054688 0,-1.7558594 0,-8.355469 0,-25.066406 -2.9667962,0 -8.9609358,0 0,4.480469 0,13.380859 0,4.480469 0,13.4414064 z"
     style="font-size:62px;font-family:Cornerstone;letter-spacing:0;dominant-baseline:auto;fill:url(#radialGradient1145);fill-opacity:1;stroke:#3a3a6c;stroke-width:1.37471449;stroke-miterlimit:4;stroke-dasharray:none;stroke-opacity:1"
     id="path2473"
     inkscape:connector-curvature="0" /><path
     d="m 55.548278,-36.203125 q 0,5.994141 0,17.861328 0,1.876953 -1.271484,3.208985 -1.332032,1.271484 -3.148438,1.271484 -4.480469,0 -13.441406,0 0,5.933594 0,17.861328 -2.966797,0 -8.900391,0 0,-2.9667969 0,-7.4472656 0,-4.4199224 0,-10.4140624 0,-2.966797 0,-8.900391 0,-3.027343 0,-8.960937 0,-2.966797 0,-8.900391 2.966797,0 8.900391,0 4.480469,0 13.441406,0 1.816406,0 3.148438,1.271485 1.271484,1.332031 1.271484,3.148437 z M 37.68695,-22.761719 q 3.027344,0 8.960937,0 0,-0.544922 0,-1.574218 0,-2.482422 0,-7.386719 -2.966797,0 -8.960937,0 0,2.966797 0,8.960937 z"
     style="font-size:62px;font-family:Cornerstone;letter-spacing:0;dominant-baseline:auto;fill:url(#radialGradient1145);fill-opacity:1;stroke:#3a3a6c;stroke-width:1.37471449;stroke-miterlimit:4;stroke-dasharray:none;stroke-opacity:1"
     id="path2475"
     inkscape:connector-curvature="0" /><path
     d="m 91.270934,-40.623047 q -6.660156,0 -26.761719,0 0,1.089844 0,3.330078 0,2.240235 0,5.570313 2.240235,0 8.900391,0 0,8.960937 0,35.722656 2.240234,0 8.960938,0 0,-8.9003906 0,-35.722656 2.240234,0 8.90039,0 0,-2.966797 0,-8.900391 z"
     style="font-size:62px;font-family:Cornerstone;letter-spacing:0;dominant-baseline:auto;fill:url(#radialGradient1145);fill-opacity:1;stroke:#3a3a6c;stroke-width:1.37471449;stroke-miterlimit:4;stroke-dasharray:none;stroke-opacity:1"
     id="path2477"
     inkscape:connector-curvature="0" /><path
     d="m 100.23188,-40.623047 q 2.24023,0 8.90039,0 0,8.355469 0,33.482422 0,2.7851562 0,11.140625 -2.17969,0 -8.90039,0 0,-5.5703125 0,-16.710937 0,-11.140625 0,-27.91211 z"
     style="font-size:62px;font-family:Cornerstone;letter-spacing:0;dominant-baseline:auto;fill:url(#radialGradient1145);fill-opacity:1;stroke:#3a3a6c;stroke-width:1.37471449;stroke-miterlimit:4;stroke-dasharray:none;stroke-opacity:1"
     id="path2479"
     inkscape:connector-curvature="0" /><path
     d="m 162.7768,-36.203125 q 0,13.441406 0,40.203125 -2.9668,0 -8.90039,0 0,-11.927734 0,-35.722656 -2.9668,0 -8.96094,0 0,11.927734 0,35.722656 -2.96679,0 -8.90039,0 0,-11.927734 0,-35.722656 -2.9668,0 -8.96094,0 0,11.927734 0,35.722656 -2.96679,0 -8.90039,0 0,-5.0253906 0,-15.136719 0,-4.177734 0,-10.414062 0,-6.296875 0,-14.652344 0,-1.816406 1.33204,-3.148437 1.27148,-1.271485 3.14843,-1.271485 4.41992,0 13.38086,0 1.87695,0 3.14844,1.271485 1.33203,1.332031 1.33203,3.148437 0,-1.816406 1.27148,-3.148437 1.33204,-1.271485 3.14844,-1.271485 4.48047,0 13.44141,0 1.8164,0 3.14844,1.271485 1.27148,1.332031 1.27148,3.148437 z"
     style="font-size:62px;font-family:Cornerstone;letter-spacing:0;dominant-baseline:auto;fill:url(#radialGradient1145);fill-opacity:1;stroke:#3a3a6c;stroke-width:1.37471449;stroke-miterlimit:4;stroke-dasharray:none;stroke-opacity:1"
     id="path2481"
     inkscape:connector-curvature="0" /><path
     d="m 198.56,-40.623047 q 0,13.38086 0,40.1425783 0,1.8769531 -1.27148,3.1484375 Q 195.95649,4 194.14008,4 q -5.99414,0 -17.86133,0 -1.87695,0 -3.14843,-1.3320312 -1.33204,-1.2714844 -1.33204,-3.1484375 0,-6.6601563 0,-16.7109373 0,-10.050781 0,-23.431641 2.9668,0 8.9004,0 0,11.867188 0,35.7226564 3.02734,0 8.96093,0 0,-11.9277344 0,-35.7226564 2.9668,0 8.90039,0 z"
     style="font-size:62px;font-family:Cornerstone;letter-spacing:0;dominant-baseline:auto;fill:url(#radialGradient1145);fill-opacity:1;stroke:#3a3a6c;stroke-width:1.37471449;stroke-miterlimit:4;stroke-dasharray:none;stroke-opacity:1"
     id="path2483"
     inkscape:connector-curvature="0" /><path
     d="m 225.38227,-27.242187 q 0,-1.513672 0,-4.480469 -2.9668,0 -8.96094,0 0,2.966797 0,8.960937 4.48047,0 13.44141,0 1.8164,0 3.14844,1.271485 1.27148,1.332031 1.27148,3.148437 0,5.994141 0,17.8613283 0,1.8769531 -1.27148,3.1484375 Q 231.67914,4 229.86274,4 q -5.99414,0 -17.86133,0 -1.87695,0 -3.14844,-1.3320312 -1.33203,-1.2714844 -1.33203,-3.1484375 0,-2.9667969 0,-8.9003903 2.9668,0 8.90039,0 0,1.453125 0,4.4804684 3.02735,0 8.96094,0 0,-3.0273434 0,-8.9609374 -4.48047,0 -13.38086,0 -1.87695,0 -3.14844,-1.271484 -1.33203,-1.332032 -1.33203,-3.208985 0,-2.966797 0,-7.447265 0,-4.480469 0,-10.414063 0,-1.816406 1.33203,-3.148437 1.27149,-1.271485 3.14844,-1.271485 5.93359,0 17.86133,0 1.8164,0 3.14844,1.271485 1.27148,1.332031 1.27148,3.148437 0,3.027344 0,8.960938 -2.9668,0 -8.90039,0 z"
     style="font-size:62px;font-family:Cornerstone;letter-spacing:0;dominant-baseline:auto;fill:url(#radialGradient1145);fill-opacity:1;stroke:#3a3a6c;stroke-width:1.37471449;stroke-miterlimit:4;stroke-dasharray:none;stroke-opacity:1"
     id="path2485"
     inkscape:connector-curvature="0" /></g>
</g>
<path
   d="m 143.79571,73.047228 c 0,37.376832 -30.30036,67.676872 -67.671904,67.676872 -37.374986,0 -67.6736268,-30.30038 -67.6736268,-67.676872 0,-37.374957 30.2986408,-67.6718842 67.6736268,-67.6718842 37.371544,0 67.671904,30.2969272 67.671904,67.6718842 z"
   id="path3214"
   style="fill:url(#radialGradient3968);fill-opacity:1;fill-rule:nonzero;stroke:#39396c;stroke-width:2.75071454;stroke-miterlimit:4;stroke-dasharray:none;stroke-opacity:1"
   inkscape:connector-curvature="0" /><g
   id="g4136"
   style="opacity:1;fill:#204a87;fill-opacity:0.71345029;fill-rule:nonzero;stroke:none;stroke-miterlimit:4"
   transform="matrix(3.4284546,0,0,3.4284546,-9.2007065,-8.1037984)"><g
     id="g4138"
     style="fill:#204a87"><g
       id="g4142"
       style="fill:#204a87"><path
         d="m 44.0713,20.7144 c 0,0.2627 0,0 0,0 l -0.5449,0.6172 c -0.334,-0.3936 -0.709,-0.7246 -1.0898,-1.0703 l -0.8359,0.123 -0.7637,-0.8633 v 1.0684 l 0.6543,0.4951 0.4355,0.4932 0.582,-0.6582 c 0.1465,0.2744 0.291,0.5488 0.4365,0.8232 v 0.8223 l -0.6553,0.7402 -1.1992,0.8232 -0.9082,0.9063 -0.582,-0.6602 0.291,-0.7402 -0.5811,-0.6582 -0.9814,-2.0977 -0.8359,-0.9453 -0.2188,0.2461 0.3281,1.1934 0.6172,0.6992 c 0.3525,1.0176 0.7012,1.9902 1.1641,2.9629 0.7178,0 1.3945,-0.0762 2.1074,-0.166 v 0.5762 l -0.8721,2.1392 -0.7998,0.9043 -0.6543,1.4004 c 0,0.7676 0,1.5352 0,2.3027 l 0.2188,0.9063 -0.3633,0.4102 -0.8008,0.4941 -0.8359,0.6992 0.6914,0.7813 -0.9453,0.8242 0.1816,0.5332 -1.418,1.6055 h -0.9443 l -0.7998,0.4941 H 33.6396 V 38.2814 L 33.4228,36.963 c -0.2813,-0.8262 -0.5742,-1.6465 -0.8721,-2.4668 0,-0.6055 0.0361,-1.2051 0.0723,-1.8105 l 0.3643,-0.8223 -0.5098,-0.9883 0.0371,-1.3574 -0.6914,-0.7813 0.3457,-1.1309 -0.5625,-0.6382 H 30.624 l -0.3271,-0.3701 -0.9814,0.6177 -0.3994,-0.4536 -0.9092,0.7817 c -0.6172,-0.6997 -1.2354,-1.3989 -1.8535,-2.0981 l -0.7266,-1.7285 0.6543,-0.9863 -0.3633,-0.4111 0.7988,-1.8936 c 0.6563,-0.8164 1.3418,-1.5996 2.0352,-2.3857 l 1.2363,-0.3291 1.3809,-0.1641 0.9453,0.2471 1.3447,1.3564 0.4727,-0.5342 0.6533,-0.082 1.2363,0.4111 h 0.9453 l 0.6543,-0.5762 0.291,-0.4111 -0.6553,-0.4111 -1.0908,-0.082 c -0.3027,-0.4199 -0.584,-0.8613 -0.9434,-1.2344 l -0.3643,0.1641 -0.1455,1.0703 -0.6543,-0.7402 -0.1445,-0.8242 -0.7266,-0.5742 h -0.292 l 0.7275,0.8223 -0.291,0.7402 -0.5811,0.1641 0.3633,-0.7402 -0.6553,-0.3281 -0.5801,-0.6582 -1.0918,0.2461 -0.1445,0.3281 -0.6543,0.4121 -0.3633,0.9053 -0.9082,0.4521 -0.4004,-0.4521 h -0.4355 v -1.4814 l 0.9453,-0.4941 h 0.7266 l -0.1465,-0.5752 -0.5801,-0.5762 0.9805,-0.2061 0.5449,-0.6162 0.4355,-0.7412 h 0.8008 l -0.2188,-0.5752 0.5098,-0.3291 v 0.6582 l 1.0898,0.2461 1.0898,-0.9043 0.0732,-0.4121 0.9443,-0.6577 c -0.3418,0.0425 -0.6836,0.0737 -1.0176,0.1646 V 9.9766 L 34.2213,9.1538 H 33.858 l -0.7984,0.7402 -0.2188,0.4116 0.2188,0.5767 -0.3643,0.9863 -0.5811,-0.3291 -0.5078,-0.5752 -0.8008,0.5752 -0.291,-1.3159 1.3809,-0.9048 V 8.8247 l 0.873,-0.5757 1.3809,-0.3296 0.9453,0.3296 1.7441,0.3291 -0.4355,0.4932 H 35.458 l 0.9453,0.9873 0.7266,-0.8223 0.2207,-0.3618 c 0,0 2.7871,2.498 4.3799,5.2305 1.5928,2.7334 2.3408,5.9551 2.3408,6.6094 z"
         id="path4144"
         style="fill:#204a87"
         inkscape:connector-curvature="0" /></g></g><g
     id="g4146"
     style="fill:#204a87"><g
       id="g4150"
       style="fill:#204a87"><path
         d="m 26.0703,9.2363 -0.0732,0.4932 0.5098,0.3291 0.8711,-0.5757 -0.4355,-0.4937 -0.582,0.3296 -0.29,-0.0825"
         id="path4152"
         style="fill:#204a87"
         inkscape:connector-curvature="0" /></g></g><g
     id="g4154"
     style="fill:#204a87"><g
       id="g4158"
       style="fill:#204a87"><path
         d="m 26.8701,5.8633 -1.8906,-0.7407 -2.1797,0.2466 -2.6904,0.7402 -0.5088,0.4941 1.6719,1.1514 v 0.6582 l -0.6543,0.6582 0.873,1.729 0.5801,-0.3301 0.7285,-1.1514 c 1.123,-0.3472 2.1299,-0.7407 3.1973,-1.2344 l 0.873,-2.2212"
         id="path4160"
         style="fill:#204a87"
         inkscape:connector-curvature="0" /></g></g><g
     id="g4162"
     style="fill:#204a87"><g
       id="g4166"
       style="fill:#204a87"><path
         d="m 28.833,12.7749 -0.291,-0.7412 -0.5098,0.165 0.1465,0.9043 0.6543,-0.3281"
         id="path4168"
         style="fill:#204a87"
         inkscape:connector-curvature="0" /></g></g><g
     id="g4170"
     style="fill:#204a87"><g
       id="g4174"
       style="fill:#204a87"><path
         d="m 29.123,12.6089 -0.1455,0.9883 0.7998,-0.165 0.5811,-0.5752 -0.5088,-0.4941 C 29.6787,11.9078 29.4824,11.483 29.2685,11.0465 H 28.833 v 0.4932 l 0.29,0.3291 v 0.7402"
         id="path4176"
         style="fill:#204a87"
         inkscape:connector-curvature="0" /></g></g><g
     id="g4178"
     style="fill:#204a87"><g
       id="g4182"
       style="fill:#204a87"><path
         d="m 18.3652,28.2422 -0.582,-1.1523 -1.0903,-0.2466 -0.5815,-1.5625 -1.4536,0.1641 -1.2354,-0.9043 -1.3091,1.1514 v 0.1816 c -0.396,-0.1143 -0.8828,-0.1299 -1.2354,-0.3467 l -0.291,-0.8223 v -0.9053 l -0.8721,0.082 c 0.0728,-0.5762 0.145,-1.1514 0.2183,-1.7275 H 9.4238 L 8.9155,22.812 8.4062,23.0581 7.6791,22.6479 7.6063,21.7426 7.7518,20.7553 8.8426,19.933 h 0.8721 l 0.145,-0.4941 1.0903,0.2461 0.7998,0.9883 0.1455,-1.6465 1.3813,-1.1514 0.5088,-1.2344 1.0176,-0.4111 0.5815,-0.8223 1.3081,-0.248 0.6548,-0.9863 c -0.6543,0 -1.3086,0 -1.9629,0 l 1.2358,-0.5762 h 0.8716 l 1.2363,-0.4121 0.1455,-0.4922 -0.4365,-0.4121 -0.5088,-0.165 0.1455,-0.4932 -0.3633,-0.7402 -0.8726,0.3281 0.1455,-0.6577 -1.0176,-0.5762 -0.7993,1.3979 0.0723,0.4941 -0.7993,0.3301 -0.5093,1.0693 -0.2178,-0.9873 -1.3813,-0.5762 -0.2183,-0.7402 1.8174,-1.0703 0.7998,-0.7402 0.0728,-0.9048 -0.436,-0.2471 -0.5815,-0.0825 -0.3633,0.9053 c 0,0 -0.6079,0.1191 -0.7642,0.1577 -1.9961,1.8394 -6.0293,5.8101 -6.9663,13.3062 0.0371,0.1738 0.6792,1.1816 0.6792,1.1816 l 1.5264,0.9043 1.5264,0.4121 0.6548,0.8232 1.0171,0.7402 0.5815,-0.082 0.436,0.1963 v 0.1328 l -0.5811,1.563 -0.4365,0.6582 0.1455,0.3301 -0.3633,1.2324 1.3086,2.3867 1.3081,1.1523 0.582,0.8223 -0.0732,1.7285 0.4365,0.9863 -0.4365,1.8926 c 0,0 -0.0342,-0.0117 0.0215,0.1777 0.0562,0.1895 2.3291,1.4512 2.4736,1.3438 0.144,-0.1094 0.2671,-0.2051 0.2671,-0.2051 l -0.145,-0.4102 0.5811,-0.5762 0.2183,-0.5762 0.9453,-0.3301 0.7266,-1.8105 -0.2178,-0.4922 0.5078,-0.7402 1.0908,-0.248 0.582,-1.3164 -0.1455,-1.6445 0.8721,-1.2344 0.1455,-1.2344 C 20.7331,29.4607 19.5495,28.8513 18.365,28.242"
         id="path4184"
         style="fill:#204a87"
         inkscape:connector-curvature="0" /></g></g><g
     id="g4186"
     style="fill:#204a87"><g
       id="g4190"
       style="fill:#204a87"><path
         d="m 16.7656,9.5649 0.7266,0.4937 h 0.582 V 9.4829 l -0.7266,-0.3291 -0.582,0.4111"
         id="path4192"
         style="fill:#204a87"
         inkscape:connector-curvature="0" /></g></g><g
     id="g4194"
     style="fill:#204a87"><g
       id="g4198"
       style="fill:#204a87"><path
         d="M 14.876,8.9072 14.5122,9.812 h 0.7271 L 15.6031,8.9892 C 15.9166,8.7675 16.2286,8.5444 16.5479,8.331 l 0.7271,0.2471 c 0.4844,0.3291 0.9688,0.6582 1.4536,0.9868 L 19.4561,8.9072 18.6558,8.5781 18.292,7.8374 16.9111,7.6728 16.8383,7.2612 16.184,7.4262 15.8936,8.002 15.5298,7.2613 l -0.145,0.3291 0.0728,0.8228 -0.5816,0.494"
         id="path4200"
         style="fill:#204a87"
         inkscape:connector-curvature="0" /></g></g><g
     id="g4202"
     style="fill:#204a87"><g
       id="g4204"
       style="opacity:0.75;fill:#204a87"><path
         d=""
         id="path4206"
         style="fill:#204a87"
         inkscape:connector-curvature="0" /></g><g
       id="g4208"
       style="fill:#204a87"><path
         d=""
         id="path4210"
         style="fill:#204a87"
         inkscape:connector-curvature="0" /></g></g><g
     id="g4212"
     style="fill:#204a87"><g
       id="g4214"
       style="opacity:0.75;fill:#204a87"><path
         d=""
         id="path4216"
         style="fill:#204a87"
         inkscape:connector-curvature="0" /></g><g
       id="g4218"
       style="fill:#204a87"><path
         d=""
         id="path4220"
         style="fill:#204a87"
         inkscape:connector-curvature="0" /></g></g><g
     id="g4222"
     style="fill:#204a87"><g
       id="g4226"
       style="fill:#204a87"><path
         d="M 17.4922,6.8496 17.856,6.521 18.5831,6.3564 c 0.498,-0.2422 0.998,-0.4053 1.5264,-0.5762 l -0.29,-0.4937 -0.9385,0.1348 -0.4434,0.4419 -0.731,0.106 -0.6499,0.3052 -0.3159,0.1528 -0.1929,0.2583 0.9443,0.1641"
         id="path4228"
         style="fill:#204a87"
         inkscape:connector-curvature="0" /></g></g><g
     id="g4230"
     style="fill:#204a87"><g
       id="g4234"
       style="fill:#204a87"><path
         d="m 18.7285,14.6665 0.4365,-0.6582 -0.6548,-0.4932 0.2183,1.1514"
         id="path4236"
         style="fill:#204a87"
         inkscape:connector-curvature="0" /></g></g></g><path
   d="m 140.35891,73.047365 c 0,35.478635 -28.76151,64.239865 -64.235168,64.239865 -35.476865,0 -64.23677,-28.76154 -64.23677,-64.239865 0,-35.476858 28.759905,-64.2351638 64.23677,-64.2351638 35.473658,0 64.235168,28.7583058 64.235168,64.2351638 z"
   id="path4122"
   style="opacity:0.39560439;fill:none;fill-opacity:1;fill-rule:nonzero;stroke:url(#radialGradient4132);stroke-width:3.48997951;stroke-miterlimit:4;stroke-opacity:1"
   inkscape:connector-curvature="0" /><ellipse
   id="path5991"
   inkscape:r_cx="true"
   inkscape:r_cy="true"
   style="color:#000000;display:inline;overflow:visible;visibility:visible;opacity:1;fill:none;fill-opacity:1;fill-rule:evenodd;stroke:url(#linearGradient6007);stroke-width:3.48997951;stroke-linecap:round;stroke-linejoin:round;stroke-miterlimit:4;stroke-dasharray:none;stroke-dashoffset:0;stroke-opacity:1;marker:none;marker-start:none;marker-mid:none;marker-end:none"
   transform="rotate(28.460691)"
   cx="96.595642"
   cy="29.446981"
   rx="70.640434"
   ry="33.00666" /><ellipse
   id="path6009"
   inkscape:r_cx="true"
   inkscape:r_cy="true"
   style="color:#000000;display:inline;overflow:visible;visibility:visible;opacity:1;fill:none;fill-opacity:1;fill-rule:evenodd;stroke:url(#linearGradient6011);stroke-width:3.48997903;stroke-linecap:round;stroke-linejoin:round;stroke-miterlimit:4;stroke-dasharray:none;stroke-dashoffset:0;stroke-opacity:1;marker:none;marker-start:none;marker-mid:none;marker-end:none"
   transform="rotate(-43.10261)"
   cx="8.683321"
   cy="126.06571"
   rx="70.640427"
   ry="33.00666" /><g
   id="g4933"
   inkscape:r_cx="true"
   inkscape:r_cy="true"
   transform="matrix(-3.6497227,2.6776902,2.6776902,3.6497227,114.67762,-86.198604)"><circle
     id="path4935"
     inkscape:r_cx="true"
     inkscape:r_cy="true"
     style="color:#000000;display:inline;overflow:visible;visibility:visible;opacity:1;fill:url(#radialGradient5987);fill-opacity:1;fill-rule:evenodd;stroke:none;stroke-width:1;stroke-linecap:round;stroke-linejoin:round;stroke-miterlimit:4;stroke-dasharray:none;stroke-dashoffset:0;stroke-opacity:1;marker:none;marker-start:none;marker-mid:none;marker-end:none"
     transform="translate(14.95026,22.93047)"
     cx="12.071323"
     cy="12.493138"
     r="6.7175145" /><circle
     id="path4937"
     inkscape:r_cx="true"
     inkscape:r_cy="true"
     style="color:#000000;display:inline;overflow:visible;visibility:visible;opacity:1;fill:#ffffff;fill-opacity:1;fill-rule:evenodd;stroke:none;stroke-width:1;stroke-linecap:round;stroke-linejoin:round;stroke-miterlimit:4;stroke-dasharray:none;stroke-dashoffset:0;stroke-opacity:1;marker:none;marker-start:none;marker-mid:none;marker-end:none"
     transform="matrix(0.308271,0,0,0.308271,23.30035,31.57234)"
     cx="12.071323"
     cy="12.493138"
     r="6.7175145" /></g><ellipse
   id="path6013"
   inkscape:r_cx="true"
   inkscape:r_cy="true"
   style="color:#000000;display:inline;overflow:visible;visibility:visible;opacity:1;fill:none;fill-opacity:1;fill-rule:evenodd;stroke:url(#linearGradient6015);stroke-width:3.48997879;stroke-linecap:round;stroke-linejoin:round;stroke-miterlimit:4;stroke-dasharray:none;stroke-dashoffset:0;stroke-opacity:1;marker:none;marker-start:none;marker-mid:none;marker-end:none"
   transform="rotate(-174.37239)"
   cx="-78.403877"
   cy="-60.204365"
   rx="70.640427"
   ry="33.006653" /><ellipse
   id="path6017"
   inkscape:r_cx="true"
   inkscape:r_cy="true"
   style="color:#000000;display:inline;overflow:visible;visibility:visible;opacity:1;fill:none;fill-opacity:1;fill-rule:evenodd;stroke:url(#linearGradient6019);stroke-width:3.48997688;stroke-linecap:round;stroke-linejoin:round;stroke-miterlimit:4;stroke-dasharray:none;stroke-dashoffset:0;stroke-opacity:1;marker:none;marker-start:none;marker-mid:none;marker-end:none"
   transform="matrix(0.73014176,-0.6832957,0.68331862,0.7301203,0,0)"
   cx="4.5201516"
   cy="106.96113"
   rx="69.026176"
   ry="32.252277" /><g
   id="g5075"
   inkscape:r_cx="true"
   inkscape:r_cy="true"
   transform="matrix(-2.8138866,2.0644623,2.0644623,2.8138866,33.602358,-71.838216)"><circle
     id="path5077"
     inkscape:r_cx="true"
     inkscape:r_cy="true"
     style="color:#000000;display:inline;overflow:visible;visibility:visible;opacity:1;fill:url(#radialGradient5983);fill-opacity:1;fill-rule:evenodd;stroke:none;stroke-width:1;stroke-linecap:round;stroke-linejoin:round;stroke-miterlimit:4;stroke-dasharray:none;stroke-dashoffset:0;stroke-opacity:1;marker:none;marker-start:none;marker-mid:none;marker-end:none"
     transform="translate(14.95026,22.93047)"
     cx="12.071323"
     cy="12.493138"
     r="6.7175145" /><circle
     id="path5079"
     inkscape:r_cx="true"
     inkscape:r_cy="true"
     style="color:#000000;display:inline;overflow:visible;visibility:visible;opacity:1;fill:#ffffff;fill-opacity:1;fill-rule:evenodd;stroke:none;stroke-width:1;stroke-linecap:round;stroke-linejoin:round;stroke-miterlimit:4;stroke-dasharray:none;stroke-dashoffset:0;stroke-opacity:1;marker:none;marker-start:none;marker-mid:none;marker-end:none"
     transform="matrix(0.308271,0,0,0.308271,23.30035,31.57234)"
     cx="12.071323"
     cy="12.493138"
     r="6.7175145" /></g><g
   id="g4945"
   inkscape:r_cx="true"
   inkscape:r_cy="true"
   transform="matrix(-2.8138866,2.0644623,2.0644623,2.8138866,37.48831,-118.85172)"><circle
     id="path4947"
     inkscape:r_cx="true"
     inkscape:r_cy="true"
     style="color:#000000;display:inline;overflow:visible;visibility:visible;opacity:1;fill:url(#radialGradient5985);fill-opacity:1;fill-rule:evenodd;stroke:none;stroke-width:1;stroke-linecap:round;stroke-linejoin:round;stroke-miterlimit:4;stroke-dasharray:none;stroke-dashoffset:0;stroke-opacity:1;marker:none;marker-start:none;marker-mid:none;marker-end:none"
     transform="translate(14.95026,22.93047)"
     cx="12.071323"
     cy="12.493138"
     r="6.7175145" /><circle
     id="path4949"
     inkscape:r_cx="true"
     inkscape:r_cy="true"
     style="color:#000000;display:inline;overflow:visible;visibility:visible;opacity:1;fill:#ffffff;fill-opacity:1;fill-rule:evenodd;stroke:none;stroke-width:1;stroke-linecap:round;stroke-linejoin:round;stroke-miterlimit:4;stroke-dasharray:none;stroke-dashoffset:0;stroke-opacity:1;marker:none;marker-start:none;marker-mid:none;marker-end:none"
     transform="matrix(0.308271,0,0,0.308271,23.30035,31.57234)"
     cx="12.071323"
     cy="12.493138"
     r="6.7175145" /></g><g
   id="g4939"
   inkscape:r_cx="true"
   inkscape:r_cy="true"
   style="opacity:1"
   transform="matrix(-3.0370744,2.2286031,2.2282052,3.0376118,78.341762,-132.15747)"><circle
     id="path4941"
     inkscape:r_cx="true"
     inkscape:r_cy="true"
     style="color:#000000;display:inline;overflow:visible;visibility:visible;opacity:1;fill:url(#radialGradient5989);fill-opacity:1;fill-rule:evenodd;stroke:none;stroke-width:1;stroke-linecap:round;stroke-linejoin:round;stroke-miterlimit:4;stroke-dasharray:none;stroke-dashoffset:0;stroke-opacity:1;marker:none;marker-start:none;marker-mid:none;marker-end:none"
     transform="translate(14.95026,22.93047)"
     cx="12.071323"
     cy="12.493138"
     r="6.7175145" /><circle
     id="path4943"
     inkscape:r_cx="true"
     inkscape:r_cy="true"
     style="color:#000000;display:inline;overflow:visible;visibility:visible;opacity:1;fill:#ffffff;fill-opacity:1;fill-rule:evenodd;stroke:none;stroke-width:1;stroke-linecap:round;stroke-linejoin:round;stroke-miterlimit:4;stroke-dasharray:none;stroke-dashoffset:0;stroke-opacity:1;marker:none;marker-start:none;marker-mid:none;marker-end:none"
     transform="matrix(0.308271,0,0,0.308271,23.30035,31.57234)"
     cx="12.071323"
     cy="12.493138"
     r="6.7175145" /></g></svg>